;nombre;inscrits;votants
Électeurs inscrits;30 602 953;;
Votants;25 775 743;84,23%;
Suffrages exprimés;25 538 636;83,45%;99,08%
Blancs ou nuls;237 107;0,77%;0,92%
Abstention;4 827 210;15,77%;18,73%
Majorité absolue;12 769 319;;