;nombre;inscrits;votants
Électeurs inscrits;38 128 507;;
Votants;31 027 972;81,38%;
Suffrages exprimés;30 406 038;79,75%;98%
Blancs ou nuls;621 934;1,63%;2%
Abstention;7 100 535;18,62%;22,88%
Majorité absolue;15 203 020;;