candidat;voix;exprimes;inscrits;votants
François Mitterrand;1 0367 220;34.1%;27.19%;33.41%
Jacques Chirac;6 063 514;19.94%;15.9%;19.54%
Raymond Barre;5 031 849;16.55%;13.2%;16.22%
Jean-Marie Le Pen;4 375 894;14.39%;11.48%;14.1%
André Lajoinie;2 055 995;6.76%;5.39%;6.63%
Antoine Waechter;1 149 642;3.78%;3.02%;3.71%
Pierre Juquin;639 084;2.1%;1.68%;2.06%
Arlette Laguiller;606 017;1.99%;1.59%;1.95%
Pierre Boussel;116 823;0.38%;0.31%;0.38%