;nombre;inscrits;votants
Électeurs inscrits;44 472 834;;
Votants;37 254 242;83,77%;
Suffrages exprimés;36 719 396;82,57%;98,56%
Blancs ou nuls;534 846;1,2%;1,44%
Abstention;7 218 592;16,23%;19,38%
Majorité absolue;18 359 698;;