;nombre;inscrits;votants
Électeurs inscrits;48 752 339;;
Votants;35 096 478;71,99%;
Suffrages exprimés;32 057 325;65,76%;91,34%
Blancs;2 233 904;4,58%;6,37%
Nuls;805 249;1,65%;2,29%
Abstention;13 655 861;28,01%;
Majorité absolue;16 028 663;;