﻿Annee;Effectifs_de_l_enseignement_supérieur;Depense_moyenne_par_étudiant;DIE_de_l_enseignement_superieur
1976;86;97.5;84.1
1977;89;97.5;86.7
1978;93;97.5;90.3
1979;96;97.5;93.9
1980;100;100;100
1981;102;100.4;103.9
1982;105;102.9;111.8
1983;109;102.2;113.4
1984;112;103;117.2
1985;115;107;123
1986;117;106.9;123.2
1987;118;107.3;125.9
1988;122;107.9;131.2
1989;130;106.2;137
1990;139;110.2;146.3
1991;150;111.9;156.1
1992;161;112.9;169.2
1993;171;113.1;174.1
1994;179;112.1;179.9
1995;183;113.8;185.9
1996;185;115.5;188.3
1997;183;118.4;191.3
1998;182;121.6;195.2
1999;181;125.6;197.4
2000;182;127.3;201.2
2001;184;127.6;203
2002;185;130;208.1
2003;189;129;211
2004;192;129.1;214.9
2005;193;129.6;216.4
2006;193;130.7;220.2
2007;192;135.9;227.5
2008;191;141;234.6
2009;193;145.2;244.6
2010;198;144.3;248.8
2011;199;144.4;251.3
2012;202.6;141.3;249.8
2013;206.6;142.4;256.7
2014;210.1;142.4;261.1
2015;213.9;138.8;259.1
2016;219.9;137.4;263.6
2017;225;135.9;266.8
2018;230.5;135.5;272.6
2019;235.3;135.5;278.2
2020;243.9;131.9;280.7
2021;259.1;129.4;292.3
